// Jest Snapshot v1, https://goo.gl/fbAQLP

exports[`Validate ESLint configs Checks config 1`] = `
Array [
  Object {
    "column": 7,
    "endColumn": 13,
    "endLine": 1,
    "line": 1,
    "message": "'badReq' is assigned a value but never used.",
    "messageId": "unusedVar",
    "nodeType": "Identifier",
    "ruleId": "no-unused-vars",
    "severity": 2,
  },
  Object {
    "column": 24,
    "endColumn": 47,
    "endLine": 1,
    "line": 1,
    "message": "Unable to resolve path to module './file/does/not/exist'.",
    "nodeType": "Literal",
    "ruleId": "import/no-unresolved",
    "severity": 2,
  },
  Object {
    "column": 10,
    "endColumn": 14,
    "endLine": 3,
    "line": 3,
    "message": "describe.only not permitted",
    "nodeType": "Identifier",
    "ruleId": "no-only-tests/no-only-tests",
    "severity": 2,
  },
  Object {
    "column": 6,
    "endColumn": 10,
    "endLine": 4,
    "line": 4,
    "message": "it.only not permitted",
    "nodeType": "Identifier",
    "ruleId": "no-only-tests/no-only-tests",
    "severity": 2,
  },
  Object {
    "column": 5,
    "endColumn": 16,
    "endLine": 5,
    "line": 5,
    "message": "Unexpected console statement.",
    "messageId": "unexpected",
    "nodeType": "MemberExpression",
    "ruleId": "no-console",
    "severity": 2,
  },
]
`;
